{
  "names" : [
    "coronvirusKeyboard"
  ],
  "missionKeyboards" : [
    {
      "name" : "OKKeyboard",
      "isHidden" : false
    },
    {
      "name": "foodEmojiKeyboard",
      "isHidden": false
    },
    {
      "name": "animalEmojiKeyboard",
      "isHidden": false
    }
  ]
}